rtl/tb_conv_tranpose/run/CONV.VCD
$date
	Fri Jan 31 14:04:29 2025
$end
$version
	Icarus Verilog
$end
$timescale
	1s
$end
$scope module tb $end
$var wire 1 ! wgt_read $end
$var wire 8 " wgt [7:0] $end
$var wire 1 # out_valid $end
$var wire 1 $ ifm_read $end
$var wire 8 % ifm [7:0] $end
$var wire 1 & end_conv $end
$var wire 16 ' data_output [15:0] $end
$var reg 1 ( clk1 $end
$var reg 1 ) clk2 $end
$var reg 32 * ifm_cnt [31:0] $end
$var reg 1 + ifm_read_reg $end
$var reg 1 , rst_n $end
$var reg 1 - start_conv $end
$var reg 32 . wgt_cnt [31:0] $end
$var reg 1 / wgt_read_reg $end
$var integer 32 0 ofm_rtl [31:0] $end
$var integer 32 1 ow [31:0] $end
$var integer 32 2 ow_1 [31:0] $end
$scope module cov $end
$var wire 1 ( clk1 $end
$var wire 1 ) clk2 $end
$var wire 16 3 data_output [15:0] $end
$var wire 8 4 ifm [7:0] $end
$var wire 16 5 psum_00 [15:0] $end
$var wire 16 6 psum_10 [15:0] $end
$var wire 16 7 psum_20 [15:0] $end
$var wire 1 , rst_n $end
$var wire 1 - start_conv $end
$var wire 8 8 wgt [7:0] $end
$var wire 8 9 wgt_0 [7:0] $end
$var wire 8 : wgt_1 [7:0] $end
$var wire 8 ; wgt_2 [7:0] $end
$var wire 8 < wgt_3 [7:0] $end
$var wire 8 = wgt_4 [7:0] $end
$var wire 8 > wgt_5 [7:0] $end
$var wire 8 ? wgt_6 [7:0] $end
$var wire 8 @ wgt_7 [7:0] $end
$var wire 8 A wgt_8 [7:0] $end
$var wire 3 B wr_en [2:0] $end
$var wire 1 C wr_clr $end
$var wire 1 ! wgt_read $end
$var wire 9 D set_wgt [8:0] $end
$var wire 1 E set_reg $end
$var wire 1 F set_ifm $end
$var wire 1 G re_buffer $end
$var wire 3 H rd_en [2:0] $end
$var wire 1 I rd_clr $end
$var wire 16 J psum_buffer [15:0] $end
$var wire 16 K psum_23 [15:0] $end
$var wire 16 L psum_22 [15:0] $end
$var wire 16 M psum_21 [15:0] $end
$var wire 16 N psum_13 [15:0] $end
$var wire 16 O psum_12 [15:0] $end
$var wire 16 P psum_11 [15:0] $end
$var wire 16 Q psum_03 [15:0] $end
$var wire 16 R psum_02 [15:0] $end
$var wire 16 S psum_01 [15:0] $end
$var wire 1 # out_valid $end
$var wire 16 T out_fifo_1 [15:0] $end
$var wire 16 U out_fifo_0 [15:0] $end
$var wire 8 V ifm_wire [7:0] $end
$var wire 1 $ ifm_read $end
$var wire 1 & end_conv $end
$var wire 16 W data_output_temp [15:0] $end
$var reg 16 X data_in_fifo_1 [15:0] $end
$var reg 16 Y data_in_fifo_2 [15:0] $end
$scope begin genblk1[0] $end
$scope module wgt_buf $end
$var wire 1 ( clk $end
$var wire 1 , rst_n $end
$var wire 1 Z set_wgt $end
$var wire 8 [ wgt_in [7:0] $end
$var wire 8 \ wgt_out [7:0] $end
$var reg 8 ] weight [7:0] $end
$upscope $end
$upscope $end
$scope begin genblk1[1] $end
$scope module wgt_buf $end
$var wire 1 ( clk $end
$var wire 1 , rst_n $end
$var wire 1 ^ set_wgt $end
$var wire 8 _ wgt_in [7:0] $end
$var wire 8 ` wgt_out [7:0] $end
$var reg 8 a weight [7:0] $end
$upscope $end
$upscope $end
$scope begin genblk1[2] $end
$scope module wgt_buf $end
$var wire 1 ( clk $end
$var wire 1 , rst_n $end
$var wire 1 b set_wgt $end
$var wire 8 c wgt_in [7:0] $end
$var wire 8 d wgt_out [7:0] $end
$var reg 8 e weight [7:0] $end
$upscope $end
$upscope $end
$scope begin genblk1[3] $end
$scope module wgt_buf $end
$var wire 1 ( clk $end
$var wire 1 , rst_n $end
$var wire 1 f set_wgt $end
$var wire 8 g wgt_in [7:0] $end
$var wire 8 h wgt_out [7:0] $end
$var reg 8 i weight [7:0] $end
$upscope $end
$upscope $end
$scope begin genblk1[4] $end
$scope module wgt_buf $end
$var wire 1 ( clk $end
$var wire 1 , rst_n $end
$var wire 1 j set_wgt $end
$var wire 8 k wgt_in [7:0] $end
$var wire 8 l wgt_out [7:0] $end
$var reg 8 m weight [7:0] $end
$upscope $end
$upscope $end
$scope begin genblk1[5] $end
$scope module wgt_buf $end
$var wire 1 ( clk $end
$var wire 1 , rst_n $end
$var wire 1 n set_wgt $end
$var wire 8 o wgt_in [7:0] $end
$var wire 8 p wgt_out [7:0] $end
$var reg 8 q weight [7:0] $end
$upscope $end
$upscope $end
$scope begin genblk1[6] $end
$scope module wgt_buf $end
$var wire 1 ( clk $end
$var wire 1 , rst_n $end
$var wire 1 r set_wgt $end
$var wire 8 s wgt_in [7:0] $end
$var wire 8 t wgt_out [7:0] $end
$var reg 8 u weight [7:0] $end
$upscope $end
$upscope $end
$scope begin genblk1[7] $end
$scope module wgt_buf $end
$var wire 1 ( clk $end
$var wire 1 , rst_n $end
$var wire 1 v set_wgt $end
$var wire 8 w wgt_in [7:0] $end
$var wire 8 x wgt_out [7:0] $end
$var reg 8 y weight [7:0] $end
$upscope $end
$upscope $end
$scope begin genblk1[8] $end
$scope module wgt_buf $end
$var wire 1 ( clk $end
$var wire 1 , rst_n $end
$var wire 1 z set_wgt $end
$var wire 8 { wgt_in [7:0] $end
$var wire 8 | wgt_out [7:0] $end
$var reg 8 } weight [7:0] $end
$upscope $end
$upscope $end
$scope module buffer_psum $end
$var wire 1 ( clk $end
$var wire 16 ~ d_out [15:0] $end
$var wire 1 , rst_n $end
$var wire 1 !" we $end
$var wire 1 G re $end
$var wire 16 "" d_in [15:0] $end
$var reg 8 #" rd_ptr [7:0] $end
$var reg 16 $" tmp_data [15:0] $end
$var reg 8 %" wr_ptr [7:0] $end
$upscope $end
$scope module control $end
$var wire 1 ( clk1 $end
$var wire 1 ) clk2 $end
$var wire 1 , rst_n $end
$var wire 1 - start_conv $end
$var wire 1 ! wgt_read $end
$var wire 1 G re_buffer $end
$var wire 1 $ ifm_read $end
$var reg 10 &" cnt_channel [9:0] $end
$var reg 10 '" cnt_filter [9:0] $end
$var reg 9 (" cnt_index [8:0] $end
$var reg 9 )" cnt_line [8:0] $end
$var reg 5 *" counter_wgt [4:0] $end
$var reg 3 +" curr_state [2:0] $end
$var reg 1 & end_conv $end
$var reg 1 ," end_reg $end
$var reg 3 -" next_state [2:0] $end
$var reg 1 # out_valid $end
$var reg 1 I rd_clr $end
$var reg 1 ." rd_clr_reg $end
$var reg 3 /" rd_en [2:0] $end
$var reg 1 F set_ifm $end
$var reg 1 E set_reg $end
$var reg 9 0" set_wgt [8:0] $end
$var reg 1 C wr_clr $end
$var reg 3 1" wr_en [2:0] $end
$scope begin genblk1[0] $end
$upscope $end
$scope begin genblk1[1] $end
$upscope $end
$scope begin genblk1[2] $end
$upscope $end
$upscope $end
$scope module fifo_0 $end
$var wire 1 ( clk1 $end
$var wire 1 ) clk2 $end
$var wire 16 2" data_out_fifo [15:0] $end
$var wire 1 I rd_clr $end
$var wire 1 3" rd_en $end
$var wire 1 4" rd_inc $end
$var wire 1 C wr_clr $end
$var wire 1 5" wr_en $end
$var wire 1 6" wr_inc $end
$var wire 16 7" data_in_fifo [15:0] $end
$var reg 16 8" data_read [15:0] $end
$var reg 6 9" rd_ptr [5:0] $end
$var reg 1 :" reg_we $end
$var reg 6 ;" wr_ptr [5:0] $end
$upscope $end
$scope module fifo_1 $end
$var wire 1 ( clk1 $end
$var wire 1 ) clk2 $end
$var wire 16 <" data_in_fifo [15:0] $end
$var wire 16 =" data_out_fifo [15:0] $end
$var wire 1 I rd_clr $end
$var wire 1 >" rd_en $end
$var wire 1 ?" rd_inc $end
$var wire 1 C wr_clr $end
$var wire 1 @" wr_en $end
$var wire 1 A" wr_inc $end
$var reg 16 B" data_read [15:0] $end
$var reg 6 C" rd_ptr [5:0] $end
$var reg 1 D" reg_we $end
$var reg 6 E" wr_ptr [5:0] $end
$upscope $end
$scope module fifo_end $end
$var wire 1 ( clk1 $end
$var wire 1 ) clk2 $end
$var wire 16 F" data_in_fifo [15:0] $end
$var wire 16 G" psum_buffer [15:0] $end
$var wire 1 I rd_clr $end
$var wire 1 H" rd_en $end
$var wire 1 I" rd_inc $end
$var wire 1 G re_buffer $end
$var wire 1 C wr_clr $end
$var wire 1 J" wr_en $end
$var wire 1 K" wr_inc $end
$var wire 16 L" data_out_fifo [15:0] $end
$var reg 16 M" data_read [15:0] $end
$var reg 1 N" en_add $end
$var reg 5 O" rd_ptr [4:0] $end
$var reg 1 P" reg_we $end
$var reg 5 Q" wr_ptr [4:0] $end
$upscope $end
$scope module ifm_buf $end
$var wire 1 ( clk $end
$var wire 8 R" ifm_in [7:0] $end
$var wire 1 , rst_n $end
$var wire 1 F set_ifm $end
$var reg 8 S" ifm_out [7:0] $end
$upscope $end
$scope module pe00 $end
$var wire 1 ( clk $end
$var wire 8 T" ifm [7:0] $end
$var wire 16 U" psum_in [15:0] $end
$var wire 16 V" psum_out [15:0] $end
$var wire 1 , rst_n $end
$var wire 1 E set_reg $end
$var wire 8 W" wgt [7:0] $end
$var reg 16 X" psum [15:0] $end
$upscope $end
$scope module pe01 $end
$var wire 1 ( clk $end
$var wire 8 Y" ifm [7:0] $end
$var wire 16 Z" psum_in [15:0] $end
$var wire 16 [" psum_out [15:0] $end
$var wire 1 , rst_n $end
$var wire 1 E set_reg $end
$var wire 8 \" wgt [7:0] $end
$var reg 16 ]" psum [15:0] $end
$upscope $end
$scope module pe02 $end
$var wire 1 ( clk $end
$var wire 8 ^" ifm [7:0] $end
$var wire 16 _" psum_in [15:0] $end
$var wire 16 `" psum_out [15:0] $end
$var wire 1 , rst_n $end
$var wire 1 E set_reg $end
$var wire 8 a" wgt [7:0] $end
$var reg 16 b" psum [15:0] $end
$upscope $end
$scope module pe10 $end
$var wire 1 ( clk $end
$var wire 8 c" ifm [7:0] $end
$var wire 16 d" psum_in [15:0] $end
$var wire 16 e" psum_out [15:0] $end
$var wire 1 , rst_n $end
$var wire 1 E set_reg $end
$var wire 8 f" wgt [7:0] $end
$var reg 16 g" psum [15:0] $end
$upscope $end
$scope module pe11 $end
$var wire 1 ( clk $end
$var wire 8 h" ifm [7:0] $end
$var wire 16 i" psum_in [15:0] $end
$var wire 16 j" psum_out [15:0] $end
$var wire 1 , rst_n $end
$var wire 1 E set_reg $end
$var wire 8 k" wgt [7:0] $end
$var reg 16 l" psum [15:0] $end
$upscope $end
$scope module pe12 $end
$var wire 1 ( clk $end
$var wire 8 m" ifm [7:0] $end
$var wire 16 n" psum_in [15:0] $end
$var wire 16 o" psum_out [15:0] $end
$var wire 1 , rst_n $end
$var wire 1 E set_reg $end
$var wire 8 p" wgt [7:0] $end
$var reg 16 q" psum [15:0] $end
$upscope $end
$scope module pe20 $end
$var wire 1 ( clk $end
$var wire 8 r" ifm [7:0] $end
$var wire 16 s" psum_in [15:0] $end
$var wire 16 t" psum_out [15:0] $end
$var wire 1 , rst_n $end
$var wire 1 E set_reg $end
$var wire 8 u" wgt [7:0] $end
$var reg 16 v" psum [15:0] $end
$upscope $end
$scope module pe21 $end
$var wire 1 ( clk $end
$var wire 8 w" ifm [7:0] $end
$var wire 16 x" psum_in [15:0] $end
$var wire 16 y" psum_out [15:0] $end
$var wire 1 , rst_n $end
$var wire 1 E set_reg $end
$var wire 8 z" wgt [7:0] $end
$var reg 16 {" psum [15:0] $end
$upscope $end
$scope module pe22 $end
$var wire 1 ( clk $end
$var wire 8 |" ifm [7:0] $end
$var wire 16 }" psum_in [15:0] $end
$var wire 16 ~" psum_out [15:0] $end
$var wire 1 , rst_n $end
$var wire 1 E set_reg $end
$var wire 8 !# wgt [7:0] $end
$var reg 16 "# psum [15:0] $end
$upscope $end
$upscope $end
$scope task compare $end
$var integer 32 ## i [31:0] $end
$upscope $end
$scope task read_output $end
$var reg 16 $# data_output [15:0] $end
$var reg 1 %# out_valid $end
$var integer 32 &# tow [31:0] $end
$upscope $end
$upscope $end
$enddefinitions $end
#0
$dumpvars
bx &#
x%#
bx $#
bx ##
bx "#
bx !#
bx ~"
bx }"
bx |"
bx {"
bx z"
bx y"
bx x"
bx w"
bx v"
bx u"
bx t"
b0 s"
bx r"
bx q"
bx p"
bx o"
bx n"
bx m"
bx l"
bx k"
bx j"
bx i"
bx h"
bx g"
bx f"
bx e"
b0 d"
bx c"
bx b"
bx a"
bx `"
bx _"
bx ^"
bx ]"
bx \"
bx ["
bx Z"
bx Y"
bx X"
bx W"
bx V"
b0 U"
bx T"
bx S"
bx R"
bx Q"
xP"
bx O"
xN"
b0 M"
b0 L"
1K"
xJ"
1I"
xH"
bx G"
bx F"
bx E"
xD"
bx C"
b0 B"
1A"
x@"
1?"
x>"
b0 ="
bx <"
bx ;"
x:"
bx 9"
b0 8"
bx 7"
16"
x5"
14"
x3"
b0 2"
bx 1"
bx 0"
bx /"
x."
b0 -"
x,"
bx +"
bx *"
bx )"
bx ("
bx '"
bx &"
bx %"
bx $"
bx #"
b0 ""
x!"
bx ~
bx }
bx |
bx {
xz
bx y
bx x
bx w
xv
bx u
bx t
bx s
xr
bx q
bx p
bx o
xn
bx m
bx l
bx k
xj
bx i
bx h
bx g
xf
bx e
bx d
bx c
xb
bx a
bx `
bx _
x^
bx ]
bx \
bx [
xZ
bx Y
bx X
b0 W
bx V
b0 U
b0 T
bx S
bx R
bx Q
bx P
bx O
bx N
bx M
bx L
bx K
bx J
xI
bx H
xG
xF
xE
bx D
xC
bx B
bx A
bx @
bx ?
bx >
bx =
bx <
bx ;
bx :
bx 9
bx 8
b0 7
b0 6
b0 5
bx 4
b0 3
b0 2
b0 1
bx 0
x/
bx .
0-
x,
x+
bx *
1)
0(
b0 '
x&
bx %
x$
0#
bx "
x!
$end
#5
0$
0!
0z
0v
0r
0n
0j
0f
0b
0^
0Z
b0 J
b0 ~
b0 G"
b0 $"
b0 +"
0&
b0 *"
0F
0C
0."
0I
b0 D
b0 0"
0E
b0 '"
b0 &"
b0 )"
b0 ("
0%#
b0 $#
0)
1,
1(
#10
b0 "
b0 8
b0 [
b0 _
b0 c
b0 g
b0 k
b0 o
b0 s
b0 w
b0 {
b0 %
b0 4
b0 R"
0/
0+
1)
0(
#15
0G
0J"
0@"
05"
0!"
0H"
0>"
03"
b0 B
b0 1"
b0 H
b0 /"
b0 %"
b0 #"
b0 Y
b0 F"
b0 X
b0 <"
b0 *
b0 .
b0 V
b0 S"
b0 T"
b0 Y"
b0 ^"
b0 c"
b0 h"
b0 m"
b0 r"
b0 w"
b0 |"
0,"
b0 K
b0 ~"
b0 "#
b0 L
b0 y"
b0 }"
b0 {"
b0 M
b0 t"
b0 x"
b0 v"
b0 N
b0 o"
b0 q"
b0 O
b0 j"
b0 n"
b0 l"
b0 P
b0 e"
b0 i"
b0 g"
b0 Q
b0 7"
b0 `"
b0 b"
b0 R
b0 ["
b0 _"
b0 ]"
b0 S
b0 V"
b0 Z"
b0 X"
b0 A
b0 |
b0 }
b0 W"
b0 @
b0 x
b0 y
b0 \"
b0 ?
b0 t
b0 u
b0 a"
b0 >
b0 p
b0 q
b0 f"
b0 =
b0 l
b0 m
b0 k"
b0 <
b0 h
b0 i
b0 p"
b0 ;
b0 d
b0 e
b0 u"
b0 :
b0 `
b0 a
b0 z"
b0 9
b0 \
b0 ]
b0 !#
0)
1(
0,
#20
1)
0(
#25
0:"
0D"
0P"
0N"
0)
1(
1,
#30
1)
0(
#32
b1 -"
1-
#35
1!
1Z
b1 D
b1 0"
b1 *"
b1 +"
0)
1(
#40
b11 "
b11 8
b11 [
b11 _
b11 c
b11 g
b11 k
b11 o
b11 s
b11 w
b11 {
b1 .
1/
1)
0(
#42
0-
#45
1^
0Z
b11 9
b11 \
b11 ]
b11 !#
b10 D
b10 0"
b10 *"
0)
1(
#50
b1010 "
b1010 8
b1010 [
b1010 _
b1010 c
b1010 g
b1010 k
b1010 o
b1010 s
b1010 w
b1010 {
b10 .
1)
0(
#55
1b
0^
b100 D
b100 0"
b11 *"
b1010 :
b1010 `
b1010 a
b1010 z"
0)
1(
#60
b11 "
b11 8
b11 [
b11 _
b11 c
b11 g
b11 k
b11 o
b11 s
b11 w
b11 {
b11 .
1)
0(
#65
1f
0b
b11 ;
b11 d
b11 e
b11 u"
b1000 D
b1000 0"
b100 *"
0)
1(
#70
b1010 "
b1010 8
b1010 [
b1010 _
b1010 c
b1010 g
b1010 k
b1010 o
b1010 s
b1010 w
b1010 {
b100 .
1)
0(
#75
1j
0f
b10000 D
b10000 0"
b101 *"
b1010 <
b1010 h
b1010 i
b1010 p"
0)
1(
#80
b11111100 "
b11111100 8
b11111100 [
b11111100 _
b11111100 c
b11111100 g
b11111100 k
b11111100 o
b11111100 s
b11111100 w
b11111100 {
b101 .
1)
0(
#85
1n
0j
b11111100 =
b11111100 l
b11111100 m
b11111100 k"
b100000 D
b100000 0"
b110 *"
0)
1(
#90
b0 "
b0 8
b0 [
b0 _
b0 c
b0 g
b0 k
b0 o
b0 s
b0 w
b0 {
b110 .
1)
0(
#95
1r
0n
b1000000 D
b1000000 0"
b111 *"
0)
1(
#100
b1010 "
b1010 8
b1010 [
b1010 _
b1010 c
b1010 g
b1010 k
b1010 o
b1010 s
b1010 w
b1010 {
b111 .
1)
0(
#105
1v
0r
b1010 ?
b1010 t
b1010 u
b1010 a"
b10000000 D
b10000000 0"
b1000 *"
0)
1(
#110
b1 "
b1 8
b1 [
b1 _
b1 c
b1 g
b1 k
b1 o
b1 s
b1 w
b1 {
b1000 .
1)
0(
#115
1z
0v
b100000000 D
b100000000 0"
b1001 *"
b1 @
b1 x
b1 y
b1 \"
0)
1(
#120
b1010 "
b1010 8
b1010 [
b1010 _
b1010 c
b1010 g
b1010 k
b1010 o
b1010 s
b1010 w
b1010 {
b1001 .
1)
0(
#125
0!
0z
b10 -"
b1010 A
b1010 |
b1010 }
b1010 W"
b0 D
b0 0"
b1010 *"
0)
1(
#130
b0 "
b0 8
b0 [
b0 _
b0 c
b0 g
b0 k
b0 o
b0 s
b0 w
b0 {
0/
1)
0(
#135
1$
1F
1E
b1 '"
b1 &"
b1 )"
b1 ("
b10 +"
0)
1(
#140
b1 %
b1 4
b1 R"
b1 *
1+
1)
0(
#145
b0 Q"
15"
1C
b10 ("
b1 V
b1 S"
b1 T"
b1 Y"
b1 ^"
b1 c"
b1 h"
b1 m"
b1 r"
b1 w"
b1 |"
b1 B
b1 1"
0)
1(
#150
b10 %
b10 4
b10 R"
b10 *
b0 E"
b0 ;"
1)
0(
#155
1J"
1@"
b10 V
b10 S"
b10 T"
b10 Y"
b10 ^"
b10 c"
b10 h"
b10 m"
b10 r"
b10 w"
b10 |"
0C
b11 ("
b11 K
b11 ~"
b11 "#
b1010 L
b1010 y"
b1010 }"
b1010 {"
b11 M
b11 t"
b11 x"
b11 v"
b1010 N
b1010 o"
b1010 q"
b1111111111111100 O
b1111111111111100 j"
b1111111111111100 n"
b1111111111111100 l"
b1010 Q
b1010 7"
b1010 `"
b1010 b"
b1 R
b1 ["
b1 _"
b1 ]"
b1010 S
b1010 V"
b1010 Z"
b1010 X"
b111 B
b111 1"
1:"
0)
1(
#160
b11111111 %
b11111111 4
b11111111 R"
b11 *
b11 Y
b11 F"
b1010 X
b1010 <"
b1 ;"
1)
0(
#165
b10100 S
b10100 V"
b10100 Z"
b10100 X"
b1100 R
b1100 ["
b1100 _"
b1100 ]"
b10101 Q
b10101 7"
b10101 `"
b10101 b"
b1111111111111000 O
b1111111111111000 j"
b1111111111111000 n"
b1111111111111000 l"
b10000 N
b10000 o"
b10000 q"
b110 M
b110 t"
b110 x"
b110 v"
b10111 L
b10111 y"
b10111 }"
b10111 {"
b10000 K
b10000 ~"
b10000 "#
b100 ("
b11111111 V
b11111111 S"
b11111111 T"
b11111111 Y"
b11111111 ^"
b11111111 c"
b11111111 h"
b11111111 m"
b11111111 r"
b11111111 w"
b11111111 |"
1D"
1P"
0)
1(
#170
b11111110 %
b11111110 4
b11111110 R"
b10000 Y
b10000 F"
b10000 X
b10000 <"
b100 *
b1 E"
b10 ;"
b1 Q"
1)
0(
#175
b11111110 V
b11111110 S"
b11111110 T"
b11111110 Y"
b11111110 ^"
b11111110 c"
b11111110 h"
b11111110 m"
b11111110 r"
b11111110 w"
b11111110 |"
b101 ("
b10100 K
b10100 ~"
b10100 "#
b1111111111111100 L
b1111111111111100 y"
b1111111111111100 }"
b1111111111111100 {"
b1111111111111101 M
b1111111111111101 t"
b1111111111111101 x"
b1111111111111101 v"
b1111111111101110 N
b1111111111101110 o"
b1111111111101110 q"
b100 O
b100 j"
b100 n"
b100 l"
b10 Q
b10 7"
b10 `"
b10 b"
b10011 R
b10011 ["
b10011 _"
b10011 ]"
b1111111111110110 S
b1111111111110110 V"
b1111111111110110 Z"
b1111111111110110 X"
0)
1(
#180
b100 %
b100 4
b100 R"
b101 *
b10100 Y
b10100 F"
b1111111111101110 X
b1111111111101110 <"
b11 ;"
b10 E"
b10 Q"
1)
0(
#185
b1111111111101100 S
b1111111111101100 V"
b1111111111101100 Z"
b1111111111101100 X"
b1111111111110100 R
b1111111111110100 ["
b1111111111110100 _"
b1111111111110100 ]"
b1111111111111111 Q
b1111111111111111 7"
b1111111111111111 `"
b1111111111111111 b"
b1000 O
b1000 j"
b1000 n"
b1000 l"
b1111111111110000 N
b1111111111110000 o"
b1111111111110000 q"
b1111111111111010 M
b1111111111111010 t"
b1111111111111010 x"
b1111111111111010 v"
b1111111111101001 L
b1111111111101001 y"
b1111111111101001 }"
b1111111111101001 {"
b1111111111110110 K
b1111111111110110 ~"
b1111111111110110 "#
b110 ("
b100 V
b100 S"
b100 T"
b100 Y"
b100 ^"
b100 c"
b100 h"
b100 m"
b100 r"
b100 w"
b100 |"
0)
1(
#190
b1111111111110110 Y
b1111111111110110 F"
b1111111111110000 X
b1111111111110000 <"
b110 *
b11 E"
b100 ;"
b11 Q"
1)
0(
#195
b111 ("
b1111111111110101 K
b1111111111110101 ~"
b1111111111110101 "#
b100010 L
b100010 y"
b100010 }"
b100010 {"
b1100 M
b1100 t"
b1100 x"
b1100 v"
b110000 N
b110000 o"
b110000 q"
b1111111111110000 O
b1111111111110000 j"
b1111111111110000 n"
b1111111111110000 l"
b11100 Q
b11100 7"
b11100 `"
b11100 b"
b1111111111110000 R
b1111111111110000 ["
b1111111111110000 _"
b1111111111110000 ]"
b101000 S
b101000 V"
b101000 Z"
b101000 X"
0)
1(
#200
b11111011 %
b11111011 4
b11111011 R"
b111 *
b1111111111110101 Y
b1111111111110101 F"
b110000 X
b110000 <"
b101 ;"
b100 E"
b100 Q"
1)
0(
#205
b101100 R
b101100 ["
b101100 _"
b101100 ]"
b11000 Q
b11000 7"
b11000 `"
b11000 b"
b11000 N
b11000 o"
b11000 q"
b110100 L
b110100 y"
b110100 }"
b110100 {"
b101110 K
b101110 ~"
b101110 "#
b1000 ("
b11111011 V
b11111011 S"
b11111011 T"
b11111011 Y"
b11111011 ^"
b11111011 c"
b11111011 h"
b11111011 m"
b11111011 r"
b11111011 w"
b11111011 |"
0)
1(
#210
b110 %
b110 4
b110 R"
b101110 Y
b101110 F"
b11000 X
b11000 <"
b1000 *
b101 E"
b110 ;"
b101 Q"
1)
0(
#215
b110 V
b110 S"
b110 T"
b110 Y"
b110 ^"
b110 c"
b110 h"
b110 m"
b110 r"
b110 w"
b110 |"
b1001 ("
b100101 K
b100101 ~"
b100101 "#
b1111111111011010 L
b1111111111011010 y"
b1111111111011010 }"
b1111111111011010 {"
b1111111111110001 M
b1111111111110001 t"
b1111111111110001 x"
b1111111111110001 v"
b1111111110111110 N
b1111111110111110 o"
b1111111110111110 q"
b10100 O
b10100 j"
b10100 n"
b10100 l"
b1111111111111010 Q
b1111111111111010 7"
b1111111111111010 `"
b1111111111111010 b"
b100011 R
b100011 ["
b100011 _"
b100011 ]"
b1111111111001110 S
b1111111111001110 V"
b1111111111001110 Z"
b1111111111001110 X"
0)
1(
#220
b1001 *
b100101 Y
b100101 F"
b1111111110111110 X
b1111111110111110 <"
b111 ;"
b110 E"
b110 Q"
1)
0(
#225
b111100 S
b111100 V"
b111100 Z"
b111100 X"
b1111111111010100 R
b1111111111010100 ["
b1111111111010100 _"
b1111111111010100 ]"
b1011111 Q
b1011111 7"
b1011111 `"
b1011111 b"
b1111111111101000 O
b1111111111101000 j"
b1111111111101000 n"
b1111111111101000 l"
b1010000 N
b1010000 o"
b1010000 q"
b10010 M
b10010 t"
b10010 x"
b10010 v"
b101101 L
b101101 y"
b101101 }"
b101101 {"
b1111111111101100 K
b1111111111101100 ~"
b1111111111101100 "#
b1010 ("
0)
1(
#230
b1111111111101100 Y
b1111111111101100 F"
b1010000 X
b1010000 <"
b1010 *
b111 E"
b1000 ;"
b111 Q"
1)
0(
#235
b1011 ("
b111111 K
b111111 ~"
b111111 "#
b1001110 L
b1001110 y"
b1001110 }"
b1001110 {"
b100100 N
b100100 o"
b100100 q"
b10000 Q
b10000 7"
b10000 `"
b10000 b"
b1000010 R
b1000010 ["
b1000010 _"
b1000010 ]"
0)
1(
#240
b11111011 %
b11111011 4
b11111011 R"
b1011 *
b111111 Y
b111111 F"
b100100 X
b100100 <"
b1001 ;"
b1000 E"
b1000 Q"
1)
0(
#245
b1111110 Q
b1111110 7"
b1111110 `"
b1111110 b"
b1100000 K
b1100000 ~"
b1100000 "#
b1100 ("
b11111011 V
b11111011 S"
b11111011 T"
b11111011 Y"
b11111011 ^"
b11111011 c"
b11111011 h"
b11111011 m"
b11111011 r"
b11111011 w"
b11111011 |"
0)
1(
#250
b11111110 %
b11111110 4
b11111110 R"
b1100000 Y
b1100000 F"
b1100 *
b1001 E"
b1010 ;"
b1001 Q"
1)
0(
#255
b11111110 V
b11111110 S"
b11111110 T"
b11111110 Y"
b11111110 ^"
b11111110 c"
b11111110 h"
b11111110 m"
b11111110 r"
b11111110 w"
b11111110 |"
b1101 ("
b111111 K
b111111 ~"
b111111 "#
b1111111111100000 L
b1111111111100000 y"
b1111111111100000 }"
b1111111111100000 {"
b1111111111110001 M
b1111111111110001 t"
b1111111111110001 x"
b1111111111110001 v"
b1111111110110110 N
b1111111110110110 o"
b1111111110110110 q"
b10100 O
b10100 j"
b10100 n"
b10100 l"
b10000 Q
b10000 7"
b10000 `"
b10000 b"
b110111 R
b110111 ["
b110111 _"
b110111 ]"
b1111111111001110 S
b1111111111001110 V"
b1111111111001110 Z"
b1111111111001110 X"
0)
1(
#260
b1000 %
b1000 4
b1000 R"
b1101 *
b111111 Y
b111111 F"
b1111111110110110 X
b1111111110110110 <"
b1011 ;"
b1010 E"
b1010 Q"
1)
0(
#265
b1111111111101100 S
b1111111111101100 V"
b1111111111101100 Z"
b1111111111101100 X"
b1111111111001100 R
b1111111111001100 ["
b1111111111001100 _"
b1111111111001100 ]"
b100011 Q
b100011 7"
b100011 `"
b100011 b"
b1000 O
b1000 j"
b1000 n"
b1000 l"
b0 N
b0 o"
b0 q"
b1111111111111010 M
b1111111111111010 t"
b1111111111111010 x"
b1111111111111010 v"
b1111111111011101 L
b1111111111011101 y"
b1111111111011101 }"
b1111111111011101 {"
b1111111111011010 K
b1111111111011010 ~"
b1111111111011010 "#
b1110 ("
b1000 V
b1000 S"
b1000 T"
b1000 Y"
b1000 ^"
b1000 c"
b1000 h"
b1000 m"
b1000 r"
b1000 w"
b1000 |"
0)
1(
#270
b11111110 %
b11111110 4
b11111110 R"
b1111111111011010 Y
b1111111111011010 F"
b0 X
b0 <"
b1110 *
b1011 E"
b1100 ;"
b1011 Q"
1)
0(
#275
0$
b11111110 V
b11111110 S"
b11111110 T"
b11111110 Y"
b11111110 ^"
b11111110 c"
b11111110 h"
b11111110 m"
b11111110 r"
b11111110 w"
b11111110 |"
b1111 ("
b1111111111110101 K
b1111111111110101 ~"
b1111111111110101 "#
b1001010 L
b1001010 y"
b1001010 }"
b1001010 {"
b11000 M
b11000 t"
b11000 x"
b11000 v"
b1011000 N
b1011000 o"
b1011000 q"
b1111111111100000 O
b1111111111100000 j"
b1111111111100000 n"
b1111111111100000 l"
b11100 Q
b11100 7"
b11100 `"
b11100 b"
b1111111111110100 R
b1111111111110100 ["
b1111111111110100 _"
b1111111111110100 ]"
b1010000 S
b1010000 V"
b1010000 Z"
b1010000 X"
0)
1(
#280
b0 %
b0 4
b0 R"
0+
b1111111111110101 Y
b1111111111110101 F"
b1011000 X
b1011000 <"
b1101 ;"
b1100 E"
b1100 Q"
1)
0(
#285
b1111111111101100 S
b1111111111101100 V"
b1111111111101100 Z"
b1111111111101100 X"
b1001110 R
b1001110 ["
b1001110 _"
b1001110 ]"
b1111111111100000 Q
b1111111111100000 7"
b1111111111100000 `"
b1111111111100000 b"
b1000 O
b1000 j"
b1000 n"
b1000 l"
b1111111111001100 N
b1111111111001100 o"
b1111111111001100 q"
b1111111111111010 M
b1111111111111010 t"
b1111111111111010 x"
b1111111111111010 v"
b100 L
b100 y"
b100 }"
b100 {"
b1000100 K
b1000100 ~"
b1000100 "#
b10000 ("
b0 V
b0 S"
b0 T"
b0 Y"
b0 ^"
b0 c"
b0 h"
b0 m"
b0 r"
b0 w"
b0 |"
0)
1(
#290
b1000100 Y
b1000100 F"
b1111111111001100 X
b1111111111001100 <"
b1101 E"
b1110 ;"
b1101 Q"
1)
0(
